[gd_scene load_steps=2 format=2]

[ext_resource path="res://levels/BnuLevel.gd" type="Script" id=5]

[node name="Level" type="StaticBody2D"]
script = ExtResource( 5 )
__meta__ = {
"_edit_lock_": true
}

[node name="Line2D" type="Line2D" parent="."]
points = PoolVector2Array( 754, 261, 512, 428, 181, 311 )
default_color = Color( 0.678431, 0.745098, 0.807843, 1 )

[node name="Line2D2" type="Line2D" parent="."]
points = PoolVector2Array( -2, 580, 231, 651, 367, 651 )
default_color = Color( 0.678431, 0.745098, 0.807843, 1 )

[node name="Line2D3" type="Line2D" parent="."]
points = PoolVector2Array( 664, 749, 526, 780 )
default_color = Color( 0.678431, 0.745098, 0.807843, 1 )

[node name="Line2D4" type="Line2D" parent="."]
points = PoolVector2Array( 55, 880, 193, 906, 284, 906 )
default_color = Color( 0.678431, 0.745098, 0.807843, 1 )

[node name="Line2D5" type="Line2D" parent="."]
points = PoolVector2Array( 690, 1011, 581, 1039, 510, 1032 )
default_color = Color( 0.678431, 0.745098, 0.807843, 1 )

[node name="Line2D6" type="Line2D" parent="."]
points = PoolVector2Array( 27, 142, 186, 176, 272, 171 )
default_color = Color( 0.678431, 0.745098, 0.807843, 1 )

[node name="Line2D7" type="Line2D" parent="."]
points = PoolVector2Array( 655, 62, 564, 59, 474, 54 )
default_color = Color( 0.678431, 0.745098, 0.807843, 1 )
